<svg width="310" height="325" viewBox="0 0 310 325" fill="none" xmlns="http://www.w3.org/2000/svg">
<g clip-path="url(#clip0_103_194)">
<path d="M307.62 160.54V160.18C307.52 159.16 306.68 158.36 305.66 158.32C304.78 158.32 218.24 156.26 175.5 237.44C166.18 219.5 156.86 204 156.72 203.74C156 202.54 154.02 202.54 153.3 203.74C153.14 204 143.84 219.5 134.52 237.44C91.76 156.28 5.2 158.32 4.34 158.32C3.32 158.36 2.48 159.16 2.42 160.18C2.16 163.88 2.02 167.66 2.02 171.38C2.02 201.32 10.7 229.26 25.62 252.88C25.66 253.18 25.74 253.48 25.9 253.74C54.18 298.12 102.46 324.62 155.02 324.62C207.58 324.62 255.58 298.26 283.9 254.12C284.08 253.86 284.14 253.56 284.18 253.26C299.26 229.56 308.02 201.5 308.02 171.4C308.02 167.8 307.9 164.14 307.64 160.56L307.62 160.54ZM155 208.7C160.74 218.46 179.34 250.8 187.08 272.4C175.88 279.96 164.92 289.9 155 302.96C145.08 289.88 134.12 279.92 122.92 272.36C130.68 250.76 149.26 218.46 155 208.7ZM118.76 274.38C119 274.78 119.34 275.1 119.82 275.26C119.94 275.3 120.06 275.3 120.18 275.32C131.5 282.88 142.58 292.96 152.54 306.32C149.52 310.54 146.6 315.06 143.8 319.92C96.84 316.4 55.9 291.08 31.1 254.02C40.7 252.84 80.86 249.78 118.76 274.36V274.38ZM155 320.38C152.74 320.38 150.48 320.3 148.26 320.2C150.8 315.9 153.44 311.86 156.18 308.1C156.22 308.08 156.26 308.06 156.28 308.04C156.66 307.76 156.88 307.38 157 306.98C200.74 247.76 266.3 252.5 278.9 254.02C252.14 294 206.6 320.38 155 320.38ZM6.28 162.32C18.86 162.52 93.82 166.88 131.74 240.76C131.9 241.08 132.16 241.3 132.44 241.48C127.46 251.26 122.68 261.44 119.5 270.1C77.72 243.8 33.72 249.54 28.72 250.3C14.36 227.4 6 200.34 6 171.36C6 168.34 6.1 165.3 6.28 162.3V162.32ZM281.3 250.32C276.3 249.56 232.34 243.84 190.54 270.16C187.36 261.5 182.58 251.28 177.6 241.5C177.88 241.32 178.12 241.08 178.3 240.78C216.22 166.9 291.18 162.54 303.76 162.34C303.94 165.34 304.04 168.4 304.04 171.4C304.04 200.38 295.7 227.42 281.32 250.34L281.3 250.32Z" fill="#A82106"/>
<path d="M155 127C158.866 127 162 123.866 162 120C162 116.134 158.866 113 155 113C151.134 113 148 116.134 148 120C148 123.866 151.134 127 155 127Z" fill="#A82106"/>
<path d="M303 127.16C306.866 127.16 310 124.026 310 120.16C310 116.294 306.866 113.16 303 113.16C299.134 113.16 296 116.294 296 120.16C296 124.026 299.134 127.16 303 127.16Z" fill="#A82106"/>
<path d="M7 127.16C10.866 127.16 14 124.026 14 120.16C14 116.294 10.866 113.16 7 113.16C3.13401 113.16 0 116.294 0 120.16C0 124.026 3.13401 127.16 7 127.16Z" fill="#A82106"/>
<path d="M98.48 121.38C112.52 121.38 123.64 129.12 131.64 144.36C128.04 140.08 123.92 135.78 120.62 133.96C112.76 129.66 103.26 133.36 102.86 133.52C102.02 133.86 101.5 134.72 101.62 135.62C101.66 136.04 102.92 145.96 111.5 150.64C116.42 153.32 126.76 154.5 134.9 155.02C135.66 156.06 136.3 156.96 136.78 157.66C137.02 158.04 137.32 158.46 137.62 158.92C142.06 172.98 142.94 185.7 142.96 185.86C142.96 186.04 143 186.2 143.06 186.36C143.2 186.76 146.44 196.16 154.28 196.16C162.12 196.16 165.28 186.74 165.4 186.34C165.46 186.18 165.48 186.02 165.5 185.86C165.5 185.72 166.4 172.98 170.84 158.94C171.14 158.5 171.42 158.1 171.66 157.72C172.16 157 172.82 156.08 173.58 155.02C181.72 154.5 192.06 153.32 196.98 150.64C205.56 145.96 206.82 136.04 206.86 135.62C206.96 134.72 206.46 133.86 205.62 133.52C205.22 133.36 195.72 129.66 187.86 133.96C184.54 135.78 180.44 140.08 176.84 144.36C184.84 129.12 195.96 121.38 210 121.38C238.44 121.38 258.86 114.86 270.68 102C283.64 87.9 281.26 71.54 281.14 70.84C280.96 69.74 279.94 69 278.86 69.18C277.78 69.34 277.02 70.38 277.18 71.46C277.2 71.62 279.34 86.66 267.72 99.3C261.76 105.78 253.34 110.52 242.58 113.52C251.5 100.64 249.6 87.46 249.5 86.84C249.32 85.74 248.3 85 247.22 85.18C246.12 85.36 245.38 86.38 245.56 87.46C245.58 87.6 247.74 102.38 236.32 115.02C228.56 116.58 219.8 117.38 209.98 117.38C209.24 117.38 208.54 117.44 207.84 117.48C217.68 104.26 215.68 90.3 215.58 89.66C215.4 88.56 214.38 87.84 213.3 88C212.22 88.16 211.46 89.2 211.62 90.28C211.64 90.44 213.78 105.48 202.16 118.12C202.14 118.14 202.14 118.18 202.1 118.2C183.08 122.16 172.86 140.34 167.44 156.82C165.16 160.1 160.72 165.76 154.24 173.68C147.78 165.78 143.34 160.14 141.02 156.82C135.6 140.34 125.36 122.18 106.36 118.2C106.34 118.18 106.34 118.14 106.3 118.12C94.68 105.48 96.82 90.44 96.84 90.3C97.02 89.2 96.26 88.18 95.18 88.02C94.1 87.86 93.06 88.6 92.9 89.68C92.8 90.32 90.78 104.28 100.64 117.5C99.92 117.46 99.22 117.4 98.5 117.4C88.68 117.4 79.92 116.6 72.16 115.04C60.8 102.46 62.9 87.62 62.92 87.48C63.1 86.38 62.34 85.36 61.26 85.2C60.18 85.02 59.14 85.78 58.98 86.86C58.88 87.48 56.98 100.68 65.92 113.56C54.62 110.42 45.9 105.34 39.92 98.36C29.26 85.94 31.3 71.64 31.32 71.48C31.48 70.4 30.74 69.36 29.66 69.2C28.58 69.02 27.54 69.78 27.38 70.86C27.28 71.52 25 87.04 36.84 100.88C48.48 114.48 69.22 121.38 98.52 121.38H98.48ZM113.42 147.14C108.5 144.46 106.6 139.34 105.92 136.74C108.6 136.02 114.16 134.98 118.7 137.48C122.3 139.44 127.58 145.54 131.68 150.78C122.9 150.04 116.36 148.74 113.42 147.14ZM189.76 137.48C191.94 136.3 194.34 135.9 196.56 135.9C198.98 135.9 201.16 136.36 202.54 136.74C201.86 139.34 199.96 144.44 195.04 147.14C192.1 148.74 185.56 150.04 176.78 150.78C180.9 145.52 186.16 139.44 189.76 137.48ZM151.56 176.72C151.96 177.2 152.18 177.48 152.14 177.42C152.52 178.04 153.18 178.36 153.84 178.36C153.88 178.36 153.92 178.36 153.96 178.36C154.18 178.44 154.4 178.48 154.62 178.48C155.24 178.48 155.84 178.18 156.22 177.58C156.28 177.5 156.52 177.2 156.92 176.72C158.42 174.9 161.48 171.16 164.5 167.34C162.34 176.56 161.66 183.8 161.54 185.32C161.1 186.48 158.74 192.18 154.28 192.18C149.82 192.18 147.38 186.48 146.94 185.3C146.82 183.76 146.14 176.54 143.98 167.32C147.02 171.16 150.08 174.88 151.56 176.7V176.72Z" fill="#A82106"/>
<path d="M70.3072 29.8056C70.4902 30.0433 70.505 30.2591 70.3514 30.4531L69.335 31.69L70.6817 44.208L74.5618 49.2472C75.0593 49.0409 75.5841 48.7883 76.1364 48.4892C76.4107 48.3537 76.6393 48.4049 76.8224 48.6426L77.6094 49.6647L71.8808 54.0756L71.0938 53.0535C70.9108 52.8158 70.9277 52.5755 71.1447 52.3328L72.2561 51.0226L68.376 45.9833L56.6418 41.4636L55.2337 42.0935C54.9752 42.2168 54.7484 42.1517 54.5531 41.8981L53.7661 40.876L59.4709 36.4834L60.2579 37.5055C60.4532 37.759 60.4502 38.0011 60.2491 38.2317C59.5435 39.0527 59.159 39.4876 59.0956 39.5364L66.4538 42.5034C67.21 42.8299 67.8241 43.1521 68.2962 43.4702C68.047 42.7533 67.8864 42.0692 67.8141 41.4181L66.8263 33.546C66.7471 33.607 66.2204 33.8737 65.2463 34.3461C64.9879 34.4693 64.761 34.4042 64.5658 34.1507L63.7971 33.1523L69.5019 28.7597L70.3072 29.8056Z" fill="#A82106"/>
<path d="M98.9284 24.8177C99.935 26.7062 100.436 28.6033 100.432 30.5092C100.419 32.3975 99.9227 34.1238 98.9435 35.6883C97.9643 37.2528 96.5746 38.5148 94.7744 39.4744C92.9565 40.4433 91.1117 40.8941 89.2399 40.8266C87.3682 40.7591 85.6448 40.2046 84.0697 39.163C82.5029 38.0944 81.2209 36.6247 80.2237 34.7539C79.2265 32.8831 78.7258 31.0082 78.7215 29.1294C78.7255 27.2235 79.2124 25.4795 80.1822 23.8974C81.1696 22.3059 82.5811 21.0209 84.4166 20.0425C86.2521 19.0641 88.0969 18.6134 89.951 18.6903C91.7957 18.7495 93.4968 19.3046 95.0542 20.3556C96.6292 21.3971 97.9201 22.8622 98.9267 24.7506L98.9284 24.8177ZM96.281 26.2288C95.0674 23.9521 93.5119 22.4582 91.6144 21.7471C89.7252 21.0091 87.7128 21.2092 85.5772 22.3475C84.1476 23.1095 83.0992 24.0763 82.4318 25.2479C81.7645 26.4195 81.4671 27.7112 81.5398 29.123C81.63 30.5254 82.0609 31.9502 82.8323 33.3974C83.6319 34.8976 84.6064 36.0667 85.7556 36.9046C86.8954 37.7249 88.1329 38.1757 89.4682 38.2572C90.8211 38.3293 92.1859 37.9985 93.5625 37.2647C94.9568 36.5215 95.9924 35.5729 96.6691 34.4189C97.3364 33.2473 97.6338 31.9556 97.5612 30.5438C97.5062 29.1227 97.0883 27.6796 96.3075 26.2147L96.281 26.2288Z" fill="#A82106"/>
<path d="M116.052 27.9841C117.908 27.3558 119.45 26.3906 120.678 25.0885L119.158 20.5986L116.004 21.666C115.815 21.7301 115.644 21.7245 115.492 21.6493C115.34 21.5741 115.241 21.4702 115.196 21.3376L114.667 19.7747L120.919 17.6591L123.563 25.4738C122.03 27.6185 119.7 29.2197 116.575 30.2775C113.6 31.284 110.861 31.1447 108.357 29.8595C105.828 28.5619 104.04 26.369 102.995 23.281C101.931 20.1362 102.013 17.3214 103.242 14.8366C104.501 12.2567 106.713 10.4315 109.876 9.36086C112.036 8.63003 114.599 8.31162 117.566 8.40564L119.162 13.1229L117.798 13.5844C117.457 13.6998 117.207 13.6156 117.048 13.3317C117.016 13.237 116.907 13.0098 116.722 12.6501C116.556 12.2841 116.297 11.6749 115.945 10.8227C115.275 10.8384 114.889 10.8528 114.788 10.8659C113.53 10.9539 112.257 11.2158 110.968 11.6517C109.585 12.1197 108.494 12.7002 107.694 13.3933C106.913 14.0799 106.306 14.8764 105.874 15.7828C105.009 17.6588 104.997 19.8377 105.837 22.3194C106.703 24.877 108.074 26.6511 109.95 27.6418C111.82 28.6136 113.854 28.7277 116.052 27.9841Z" fill="#A82106"/>
<path d="M148.217 21.6254C148.483 21.6432 148.637 21.7805 148.679 22.0372L148.87 23.2219L142.768 24.2056L142.577 23.0209C142.536 22.7642 142.649 22.584 142.916 22.4802L144.073 21.929L141.726 17.9314L132.575 19.407L131.604 23.9393L132.875 24.0989C133.141 24.1168 133.295 24.2541 133.337 24.5108L133.528 25.6955L127.456 26.6744L127.265 25.4897C127.224 25.233 127.327 25.0543 127.574 24.9537L128.701 24.4073L133.307 3.97359L136.21 3.50562L146.975 21.461L148.217 21.6254ZM136.14 8.34851C135.918 7.97907 135.593 7.34276 135.163 6.43957C135.073 7.38604 134.984 8.08921 134.896 8.54907L133.04 17.2048L140.592 15.9872L136.14 8.34851Z" fill="#A82106"/>
<path d="M173.246 12.547C175.34 13.6434 176.315 15.3193 176.17 17.5746C176.043 19.5505 175.321 21.1175 174.005 22.2756C172.624 23.4896 170.806 24.0243 168.551 23.8795C167.613 23.8193 166.64 23.6667 165.634 23.4218C164.845 23.2308 164.058 22.99 163.275 22.6992L162.426 22.3441L162.772 16.9552L164.239 17.0494C164.579 17.0711 164.767 17.2536 164.805 17.5967C164.835 17.759 164.854 18.2512 164.861 19.0733L164.866 20.3964C166.387 21.0552 167.587 21.4127 168.465 21.4691C169.343 21.5255 170.088 21.4731 170.7 21.3119C171.29 21.1694 171.766 20.9294 172.129 20.5919C172.932 19.9421 173.372 19.0184 173.449 17.8208C173.523 16.6632 173.041 15.7504 172.001 15.0825C171.541 14.7523 171.018 14.4783 170.431 14.2602C168.337 13.4645 167.107 12.9646 166.739 12.7607C166.177 12.4641 165.651 12.0696 165.162 11.5772C164.164 10.5712 163.721 9.20005 163.832 7.46362C163.934 5.88687 164.59 4.56617 165.8 3.50153C167.115 2.38341 168.75 1.88712 170.706 2.01266C172.781 2.14588 174.762 2.6738 176.646 3.59642L176.329 8.53625L174.892 8.44402C174.533 8.42096 174.334 8.23786 174.296 7.89472C174.3 7.83484 174.293 7.63397 174.275 7.29211C174.278 6.93156 174.272 6.23978 174.258 5.21675C172.885 4.74786 171.72 4.48267 170.762 4.42118C169.464 4.33792 168.446 4.59321 167.706 5.18706C166.988 5.76224 166.597 6.53882 166.535 7.51681C166.467 8.57463 166.952 9.43751 167.992 10.1055C168.413 10.4131 168.956 10.6984 169.62 10.9615C171.378 11.6756 172.607 12.2054 173.306 12.5509L173.246 12.547Z" fill="#A82106"/>
<path d="M195.576 6.33278C198.29 7.85425 199.334 10.184 198.707 13.3219C198.303 15.342 197.319 16.7973 195.754 17.6879C194.071 18.6569 192.004 18.8965 189.553 18.4066L186.552 17.8069L185.406 23.5434C185.551 23.6336 186.096 23.865 187.042 24.2375C187.304 24.3512 187.404 24.5649 187.342 24.8787L187.095 26.1143L180.034 24.7033L180.281 23.4677C180.344 23.1539 180.528 22.997 180.834 22.9969L182.576 23.0084L185.933 6.21062C185.027 5.84597 184.491 5.61659 184.327 5.52248C184.044 5.40485 183.934 5.18914 183.997 4.87534L184.244 3.63978L192.187 5.22717C193.501 5.48978 194.629 5.86812 195.57 6.3622L195.576 6.33278ZM195.865 12.6928C196.128 11.3788 195.924 10.257 195.253 9.32752C194.598 8.42156 193.427 7.80004 191.74 7.46296L188.739 6.86328L187.011 15.5122L190.011 16.1119C191.6 16.4294 192.904 16.2821 193.924 15.6701C194.967 15.0424 195.622 14.0617 195.889 12.7281L195.865 12.6928Z" fill="#A82106"/>
<path d="M219.323 34.4688C219.546 34.6154 219.612 34.8106 219.522 35.0544L219.105 36.1797L213.31 34.0338L213.727 32.9085C213.817 32.6647 214.004 32.5632 214.287 32.6042L215.566 32.6937L215.49 28.0591L206.797 24.8403L203.721 28.3081L204.75 29.0728C204.973 29.2194 205.039 29.4146 204.949 29.6584L204.532 30.7837L198.765 28.6482L199.182 27.5229C199.272 27.2791 199.449 27.1742 199.714 27.2082L200.964 27.2873L215.029 11.7653L217.786 12.7861L218.323 33.7146L219.323 34.4688ZM215.342 16.9677C215.331 16.537 215.361 15.8229 215.432 14.8254C214.887 15.6048 214.464 16.1731 214.161 16.5301L208.286 23.1522L215.46 25.8085L215.342 16.9677Z" fill="#A82106"/>
<path d="M244.365 33.1923L243.114 32.4792C242.783 32.291 242.681 32.0257 242.808 31.6833L243.936 29.2187C242.744 27.9176 241.566 26.9353 240.402 26.2718C238.438 25.1527 236.446 24.8919 234.425 25.4895C232.374 26.1393 230.715 27.5762 229.447 29.8003C228.625 31.2425 228.158 32.6682 228.045 34.0773C227.95 35.4964 228.211 36.796 228.827 37.9761C229.471 39.1488 230.444 40.1065 231.748 40.8492C232.755 41.4237 233.702 41.8022 234.588 41.9847C235.501 42.1599 236.461 42.1315 237.468 41.8997C237.704 41.8498 237.9 41.8695 238.056 41.9586C238.195 42.0378 238.287 42.1593 238.332 42.3229L238.698 43.9821C236.013 44.9377 233.236 44.5984 230.369 42.9643C228.562 41.9343 227.214 40.6248 226.324 39.0356C225.461 37.439 225.076 35.7117 225.169 33.8535C225.278 32.0053 225.853 30.1689 226.893 28.3445C228.487 25.547 230.663 23.7485 233.421 22.9492C236.151 22.1573 239.011 22.6131 241.999 24.3165C243.389 25.1088 245.01 26.6078 246.86 28.8136L244.365 33.1923Z" fill="#A82106"/>
<path d="M262.243 45.4229L261.109 44.5363C260.825 44.3146 260.764 44.0514 260.926 43.7465L262.183 41.797L255.848 36.8466L251.452 42.4727L257.692 47.3492L256.288 49.1458L250.048 44.2692L245.522 50.0607L251.857 55.0112L253.329 53.42C253.574 53.2048 253.845 53.2142 254.145 53.4481L255.28 54.3348L252.213 58.2588L240.063 48.7644L240.839 47.7715C241.036 47.5194 241.271 47.462 241.544 47.5995L243.095 48.3923L253.642 34.8946C252.997 34.1616 252.621 33.7161 252.516 33.558C252.317 33.326 252.316 33.0839 252.513 32.8318L253.289 31.839L265.439 41.3334L262.243 45.4229Z" fill="#A82106"/>
</g>
<defs>
<clipPath id="clip0_103_194">
<rect width="310" height="324.62" fill="white"/>
</clipPath>
</defs>
</svg>
